<svg xmlns="http://www.w3.org/2000/svg" viewBox="0 0 16671 17092">
  <g>
    <path d="M3219 10987v2457c0 136 110 246 246 246h7920l-1211 3066c-40 103-8 220 81 286 88 67 210 66 298-2l6023-4630c61-46 96-119 96-195s-36-148-96-195l-6023-4630c-44-34-97-51-150-51-52 0-104 17-148 50-88 66-121 184-81 286l1211 3066H3465c-136 0-246 110-246 246m-1 0z"/>
    <path d="M13452 3647v2457c0 136-110 246-246 246H5286l1211 3066c40 103 8 220-81 286-88 67-210 66-298-2L95 5070c-61-46-96-119-96-195s36-148 96-195L6118 50c44-34 97-51 150-51 52 0 104 17 148 50 88 66 121 184 81 286L5286 3401h7920c136 0 246 110 246 246m1 0z"/>
  </g>
</svg>
