<svg xmlns="http://www.w3.org/2000/svg" viewBox="0 0 100 100">
  <path d="M50 0C22.386 0 0 22.386 0 50s22.386 50 50 50 50-22.386 50-50S77.614 0 50 0zm0 90c-22.09 0-40-17.908-40-40 0-22.09 17.91-40 40-40 22.092 0 40 17.91 40 40 0 22.092-17.908 40-40 40z"/>
  <path d="M54 50c0 3.313-2.238 6-5 6s-5-2.687-5-6V20c0-3.313 2.238-6 5-6s5 2.687 5 6v30z"/>
  <path d="M47.096 56.16c-2.812-1.753-3.834-5.19-2.283-7.68 1.552-2.49 5.09-3.088 7.9-1.336L78.177 63.01c2.812 1.752 3.834 5.19 2.283 7.68-1.552 2.49-5.09 3.088-7.902 1.336L47.096 56.16z"/>
</svg>
