<svg xmlns="http://www.w3.org/2000/svg" viewBox="0 0 69.531 67.906">
  <path d="M35.04 61.316L50.542 37.5h-7.738V.004L27.82 0v37.5h-7.66zm0 0"/>
  <path d="M63.28 57.883v5.012H6.25v-5.012H0v10.023h69.53V57.883zm0 0"/>
</svg>
