<svg xmlns="http://www.w3.org/2000/svg" viewBox="0 0 90.001 90">
  <path d="M70.395 53.14l12.672-12.677c9.246-9.243 9.246-24.286 0-33.53-9.243-9.245-24.285-9.245-33.53 0L31.25 25.223c-9.246 9.244-9.246 24.287-.002 33.53 1.365 1.366 2.86 2.524 4.44 3.486l9.79-9.796c-1.864-.447-3.633-1.388-5.084-2.84-4.202-4.2-4.202-11.038 0-15.24l18.29-18.288c4.2-4.203 11.04-4.203 15.24 0 4.2 4.2 4.2 11.038 0 15.24L68.55 36.69c2.215 5.21 2.827 10.94 1.845 16.445z"/>
  <path d="M19.607 36.863L6.934 49.537c-9.246 9.244-9.246 24.286 0 33.53 9.243 9.245 24.287 9.245 33.53 0l18.29-18.29c9.244-9.243 9.243-24.285 0-33.53-1.365-1.365-2.86-2.523-4.44-3.485l-9.79 9.792c1.863.447 3.632 1.386 5.085 2.838 4.2 4.202 4.2 11.04 0 15.24l-18.29 18.29c-4.206 4.203-11.04 4.203-15.245 0-4.202-4.2-4.202-11.038 0-15.24l5.374-5.374c-2.215-5.21-2.828-10.942-1.845-16.445z"/>
</svg>
