<svg xmlns="http://www.w3.org/2000/svg" viewBox="0 0 16800 16800">
  <g>
    <path d="M11760 9261c1659 210 2940 1617 2940 3339 0 546-126 1050-357 1491l2457 1029V2100L11760 0v9261zm-3780 3339c0-1722 1281-3129 2940-3339V0L5880 2100v13020l2457-1029c-231-441-357-945-357-1491zM5040 2100L0 0v13020l5040 2100z"/>
    <path d="M11340 10080c-1386 0-2520 1134-2520 2520 0 525 168 1008 441 1428l2079 2772 2079-2772c273-399 441-903 441-1428 0-1386-1134-2520-2520-2520m0 3780c-693 0-1260-567-1260-1260s567-1260 1260-1260 1260 567 1260 1260-567 1260-1260 1260z"/>
  </g>
</svg>
