<svg xmlns="http://www.w3.org/2000/svg" viewBox="0 0 17321 17324">
  <path d="M16104 0H1217C547 0 0 547 0 1217v14890c0 670 547 1217 1217 1217h14887c670 0 1217-547 1217-1217V1213c0-670-547-1214-1217-1214m-1235 13433H2769v-282h12100v282m0-4586H2769v-282h12100v282m0-4233H2769v-282h12100v282z"/>
</svg>
