<svg xmlns="http://www.w3.org/2000/svg" viewBox="0 0 50.652 90">
  <g transform="translate(-27.174 -5)">
    <path d="M77.3 87.5L61 55.7c-.8 4.8-2.3 9.4-4.3 13.6l11.6 22.8c.9 1.7 2.6 2.7 4.5 2.7.8 0 1.5-.2 2.3-.5 2.5-1.3 3.4-4.3 2.2-6.8z"/>
    <circle cx="50.6" cy="13.4" r="8.4"/>
    <path d="M70.7 40.5c-9.2-3.9-15.2-13.8-15.3-14-1.5-2.6-4.9-3.5-7.5-1.9-.4.2-.7.5-1 .7-3.4 2.2-12.2 9-16.7 23.8-.9 2.8.7 5.8 3.6 6.7 2.8.9 5.8-.7 6.7-3.6 1.9-6.3 4.7-10.7 7.2-13.5.6 3.7.9 8.6 0 14.1C44.9 70 29 85.6 28.8 85.8c-2.1 2.1-2.2 5.4-.1 7.6 1.1 1.1 2.4 1.6 3.8 1.6 1.3 0 2.7-.5 3.7-1.5.8-.7 18.8-18.3 21.9-38.9.5-2.9.6-5.7.7-8.3 2.3 1.7 4.8 3.2 7.6 4.4.7.3 1.4.4 2.1.4 2.1 0 4.2-1.3 5.1-3.3 1.2-2.9-.1-6.1-2.9-7.3z"/>
  </g>
</svg>
