<svg xmlns="http://www.w3.org/2000/svg" viewBox="0 0 14406 14244">
  <g>
    <path d="M0 5567c84 3255 2793 5544 5985 5460 3066-84 5544-2520 5628-5565C11697 2207 8694-82 5628 2 2562 65 84 2501 0 5567c0 315 1029 231 1050-126 84-2730 2226-5187 5103-4956 2583 210 4347 2625 4431 5082 63 2751-2352 5187-5103 4956-2583-210-4347-2625-4431-5082 0-315-1050-231-1050"/>
    <path d="M9912 10292l3486 3486c0-126 0-252-21-378l-273 273c294 0 609-21 903-21-1155-1176-2310-2331-3465-3486 0 126 0 252 21 378l273-273c399-399-588-672-924-336l-273 273c-105 105-84 273 21 378l3486 3486c252 252 672 210 903-21l273-273c105-105 84-273-21-378l-3486-3486c-336-336-1323-21-903 378z"/>
  </g>
</svg>
